{
  "pools": [
    {
      "rolls": 1,
      "conditions": [
        {
          "condition": "random_chance_with_looting",
          "chance": 0.01,
          "looting_multiplier": 0.005
        }
      ],
      "entries": [
        {
          "type": "item",
          "name": "minecraft:golden_chestplate",
          "functions": [
            {
              "function": "set_nbt",
              "tag": "{display:{Name:\"§6Lucky Bunny Paw\",Lore:[\"§7Gold chain included, making you feel a little luckier\",\"§7Easter Bunny Bash 2024\",\"§6[δ]\"]}}"
            },
            {
              "function": "minecraft:enchant_randomly",
              "enchantments": [
                "minecraft:mending"
              ]
            },
            {
              "function": "minecraft:set_attributes",
              "modifiers": [
                {
                  "attribute": "generic.armor",
                  "name": "Armor",
                  "amount": 1,
                  "operation": "addition",
                  "slot": [
                    "chest"
                  ]
                },
                {
                  "attribute": "generic.luck",
                  "name": "Luck",
                  "amount": 1,
                  "operation": "addition",
                  "slot": [
                    "chest"
                  ]
                }
              ]
            }
          ]
        }
      ]
    },
    {
      "rolls": {
        "min": 1,
        "max": 2
      },
      "bonus_rolls": 1,
      "entries": [
        {
          "conditions": [
            {
              "condition": "random_chance_with_looting",
              "chance": 0.15,
              "looting_multiplier": 0.05
            }
          ],
          "type": "item",
          "name": "minecraft:golden_apple",
          "functions": [
            {
              "function": "set_nbt",
              "tag": "{display:{Name:\"§5Golden Cadbunny egg\",Lore:[\"§7The gold is edible!\",\"§7Easter Bunny Bash 2024\",\"§5[Γ]\"]}}"
            },
            {
              "function": "minecraft:set_data",
              "data": 1
            }
          ]
        }
      ]
    },
    {
      "rolls": 1,
      "entries": [
        {
          "type": "item",
          "name": "minecraft:skull",
          "functions": [
            {
              "function": "set_nbt",
              "tag": "{display:{Name:\"§rEaster Basket\"},SkullOwner:{Id:\"e12ce7d8-1f87-5f98-975d-916aef56ec84\",Properties:{textures:[{Value:\"eyJ0ZXh0dXJlcyI6eyJTS0lOIjp7InVybCI6Imh0dHA6Ly90ZXh0dXJlcy5taW5lY3JhZnQubmV0L3RleHR1cmUvYWZhYzcxNDY5NDAyNzUyOWE3ZjcwZWMzMTA0NTY2YTU2ZGYzN2JmOWRmZmFjZjQ1YzJiMGQxZWEyM2M4ODc2NyJ9fX0=\"}]},Name:\"Easter Basket\"}}"
            },
            {
              "function": "set_data",
              "data": 3
            }
          ]
        }
      ]
    }
  ]
}