{
  "pools": [
    {
      "rolls": 1,
      "entries": [
        {
          "type": "item",
          "name": "minecraft:vine",
          "functions": [
            {
              "function": "set_count",
              "count": {
                "min": 1,
                "max": 4
              }
            },
            {
              "function": "looting_enchant",
              "count": {
                "min": 1,
                "max": 2
              }
            }
          ]
        }
      ]
    },
    {
      "rolls": 1,
      "entries": [
        {
	      "conditions": [
	        {
	          "condition": "random_chance_with_looting",
	          "chance": 0.3,
	          "looting_multiplier": 0.1
	        }
	      ],
          "type": "item",
          "name": "minecraft:pumpkin_pie",
          "functions": [
            {
              "function": "set_nbt",
              "tag": "{display:{Name:\"§aSlice of Pumpking pie\",Lore:[\"§7Surprisingly safe to eat!\",\"§7Probably unethical to eat\",\"§a[α]\"]}}"
            }
          ]
        }
      ]
    },
    {
      "rolls": 1,
      "entries": [
        {
          "type": "item",
          "name": "minecraft:furnace",
          "functions": [
            {
              "function": "set_nbt",
              "tag": "{display:{Name:\"§6Spooky Pumpkin\",Lore:[\"§7Safe to place!\"]}}"
            },
            {
              "function": "set_count",
              "count": 1
            }
          ]
        }
      ]
    }
  ]
}
