{
  "pools": [
    {
      "rolls": 1,
      "entries": [
        {
          "type": "item",
          "name": "minecraft:dye",
          "functions": [
            {
              "function": "set_count",
              "count": {
                "min": 1,
                "max": 4
              }
            },
            {
              "function": "looting_enchant",
              "count": {
                "min": 0,
                "max": 1
              },
              "limit": 4
            },
            {
              "function":"set_data",
              "data": 4
            }
          ]
        }
      ]
    },
    {
      "rolls": 1,
      "entries": [
        {
          "type": "item",
          "name": "minecraft:blue_shulker_box",
          "conditions": [
            {
              "condition": "random_chance",
              "chance": 0.01
            }
          ]
        }
      ]
    },
    {
      "rolls": 1,
      "entries": [
        {
          "type": "loot_table",
          "name": "minecraft:entities/shulker"
        }
      ]
    },
    {
      "rolls": 1,
      "bonus_rolls": 1,
      "entries": [
        {
	      "conditions": [
	        {
	          "condition": "random_chance_with_looting",
	          "chance": 0.005,
	          "looting_multiplier": 0.001
	        }
	      ],
          "type": "item",
          "weight": 3,
          "name": "minecraft:skull",
          "functions": [
            {
              "function": "set_nbt",
              "tag": "{SkullOwner:{Id:\"d61f64ae-f591-50e1-afe2-629d72d5986c\",Properties:{textures:[{Value:\"eyJ0ZXh0dXJlcyI6eyJTS0lOIjp7InVybCI6Imh0dHA6Ly90ZXh0dXJlcy5taW5lY3JhZnQubmV0L3RleHR1cmUvYmUyMzkwNzdlOGI1MDYxZWM2ZTIzMDM3NmJkNmZiNTIwNjMyODliODI0N2RmYTRkZjI3ODU3YjAxNmZkNzA0ZiJ9fX0=\"}]},Name:\"Blue Shulker\"}}"
            },
            {
              "function": "set_data",
              "data": 3
            }
          ]
        },
        {
	      "conditions": [
	        {
	          "condition": "random_chance_with_looting",
	          "chance": 0.005,
	          "looting_multiplier": 0.001
	        }
	      ],
          "type": "item",
          "weight": 2,
          "name": "minecraft:skull",
          "functions": [
            {
              "function": "set_nbt",
              "tag": "{SkullOwner:{Id:\"ed0ee48b-4b30-5af2-8bb1-40945b33e7d4\",Properties:{textures:[{Value:\"eyJ0ZXh0dXJlcyI6eyJTS0lOIjp7InVybCI6Imh0dHA6Ly90ZXh0dXJlcy5taW5lY3JhZnQubmV0L3RleHR1cmUvNDRlYjdiMjU2YjllYjNkOGM0MmFkMTMyYjkwMTIzYWVlMWI5NDAxODk5ZTI2OGRiMzkyMzg3OWVkOTAyODE4OCJ9fX0=\"}]},Name:\"Blue Shulker Open\"}}"
            },
            {
              "function": "set_data",
              "data": 3
            }
          ]
        }
      ]
    }
  ]
}
