{
  "pools": [
    {
      "rolls": 1,
      "entries": [
        {
          "type": "item",
          "name": "minecraft:prismarine_crystals",
          "functions": [
            {
              "function": "set_count",
              "count": {
                "min": 1,
                "max": 4
              }
            },
            {
              "function": "looting_enchant",
              "count": {
                "min": 0,
                "max": 1
              },
              "limit": 4
            }
          ]
        }
      ]
    },
    {
      "rolls": 1,
      "entries": [
        {
          "type": "item",
          "name": "minecraft:cyan_shulker_box",
          "conditions": [
            {
              "condition": "random_chance",
              "chance": 0.01
            }
          ]
        }
      ]
    },
    {
      "rolls": 1,
      "entries": [
        {
          "type": "loot_table",
          "name": "minecraft:entities/shulker"
        }
      ]
    },
    {
      "rolls": 1,
      "bonus_rolls": 1,
      "entries": [
        {
	      "conditions": [
	        {
	          "condition": "random_chance_with_looting",
	          "chance": 0.005,
	          "looting_multiplier": 0.001
	        }
	      ],
          "type": "item",
          "weight": 3,
          "name": "minecraft:skull",
          "functions": [
            {
              "function": "set_nbt",
              "tag": "{SkullOwner:{Id:\"78a5353a-851a-550b-a614-ade8959997f6\",Properties:{textures:[{Value:\"eyJ0ZXh0dXJlcyI6eyJTS0lOIjp7InVybCI6Imh0dHA6Ly90ZXh0dXJlcy5taW5lY3JhZnQubmV0L3RleHR1cmUvYmE2NmQzYzE2M2FmZWViMzMxNzNhMGQ4ZjUyYzM1MmRmZDEwMGRkNDc0YjNhOTZiMzJkMTJmZGQwM2IwMDgyMCJ9fX0=\"}]},Name:\"Cyan Shulker\"}}"
            },
            {
              "function": "set_data",
              "data": 3
            }
          ]
        },
        {
	      "conditions": [
	        {
	          "condition": "random_chance_with_looting",
	          "chance": 0.005,
	          "looting_multiplier": 0.001
	        }
	      ],
          "type": "item",
          "weight": 2,
          "name": "minecraft:skull",
          "functions": [
            {
              "function": "set_nbt",
              "tag": "{SkullOwner:{Id:\"905c3a5a-4423-5f1b-9aa6-4e59ade6bc53\",Properties:{textures:[{Value:\"eyJ0ZXh0dXJlcyI6eyJTS0lOIjp7InVybCI6Imh0dHA6Ly90ZXh0dXJlcy5taW5lY3JhZnQubmV0L3RleHR1cmUvODViODRkOGRjZDk4ZjBlMGVjZGMxODg3YzBlZjc5NWEwY2M1Mjk5Zjk4NDMzZDRlMDU4MmE4Y2YzMDRkMDBhZiJ9fX0=\"}]},Name:\"Cyan Shulker Open\"}}"
            },
            {
              "function": "set_data",
              "data": 3
            }
          ]
        }
      ]
    }
  ]
}
